pypi_package/test/DC_C432/C432.vcd
$date
	Thu Sep 22 21:07:39 2022
$end
$version
	ModelSim Version 10.5b
$end
$timescale
	1ps
$end

$scope module C432_tb $end

$scope module UUT $end
$var wire 1 ! in4 $end
$var wire 1 " in17 $end
$var wire 1 # in30 $end
$var wire 1 $ in43 $end
$var wire 1 % in56 $end
$var wire 1 & in69 $end
$var wire 1 ' in82 $end
$var wire 1 ( in95 $end
$var wire 1 ) in108 $end
$var wire 1 * in1 $end
$var wire 1 + in11 $end
$var wire 1 , in24 $end
$var wire 1 - in37 $end
$var wire 1 . in50 $end
$var wire 1 / in63 $end
$var wire 1 0 in76 $end
$var wire 1 1 in89 $end
$var wire 1 2 in102 $end
$var wire 1 3 in8 $end
$var wire 1 4 in21 $end
$var wire 1 5 in34 $end
$var wire 1 6 in47 $end
$var wire 1 7 in60 $end
$var wire 1 8 in73 $end
$var wire 1 9 in86 $end
$var wire 1 : in99 $end
$var wire 1 ; in112 $end
$var wire 1 < in14 $end
$var wire 1 = in27 $end
$var wire 1 > in40 $end
$var wire 1 ? in53 $end
$var wire 1 @ in66 $end
$var wire 1 A in79 $end
$var wire 1 B in92 $end
$var wire 1 C in105 $end
$var wire 1 D in115 $end
$var wire 1 E out223 $end
$var wire 1 F out329 $end
$var wire 1 G out370 $end
$var wire 1 H out421 $end
$var wire 1 I out430 $end
$var wire 1 J out431 $end
$var wire 1 K out432 $end
$upscope $end
$upscope $end
$enddefinitions $end
#0
$dumpvars
xE
xF
xG
xH
xI
xJ
xK
0D
0C
0B
0A
0@
0?
0>
0=
0<
0;
0:
09
08
07
06
05
04
03
02
01
00
0/
0.
0-
0,
0+
0*
0)
0(
0'
0&
0%
0$
0#
0"
0!
$end
#200
0I
#300
0G
0F
#400
0J
0K
0H
#500
0E
#10000
1"
1#
1$
1%
1&
1'
1(
1)
1*
1,
1-
1.
1/
10
11
12
13
15
16
17
18
19
1:
1;
1<
1>
1?
1@
1A
1B
1C
1D
#10200
1F
1G
1J
1K
1I
#10300
1E
#10400
1H
#20000
1+
0,
14
05
1=
0>
#20200
0I
0J
0K
0E
#20300
1I
1J
#20400
0G
0H
1E
#20500
1H
#20600
1G
#30000
1,
0-
15
06
1>
0?
#30200
0I
0J
#30300
1I
#30400
0G
0H
#30500
1K
1H
#30600
1G
#40000
1-
0.
16
07
1?
0@
#40200
0I
#40300
1I
#40400
0K
0G
0H
#40500
1G
1H
#50000
1.
0/
17
08
1@
0A
#50200
0I
#50300
0F
0G
#50400
1F
0H
#50500
1G
1J
1K
1H
#60000
1/
00
18
09
1A
0B
#60200
0E
#60300
0G
#60400
0J
0K
0H
1E
#60500
1J
1H
#60600
1G
#70000
10
01
19
0:
1B
0C
#70400
0G
0J
0H
#70500
1K
1H
#70600
1G
#80000
11
02
1:
0;
1C
0D
#80400
0G
0K
0H
#80500
1H
#80600
1G
#90000
12
03
1;
0<
1D
#90400
0G
0F
0E
0H
#90700
1J
1K
1I
#90900
1H
#100000
13
04
06
07
1<
0>
#100300
1F
#100400
1G
#100700
0I
0G
0J
#100900
0K
0H
#101000
1J
1K
1I
#101200
1H
#110000
14
05
16
17
0=
1>
0?
0@
0A
0B
0C
0D
#110300
1G
#110400
0K
#110600
0I
0J
0G
#110800
0H
#110900
1I
1J
#111100
1H
#120000
15
06
09
0;
1=
1?
1@
1A
1B
1C
1D
#120300
0J
#120500
1K
#130000
16
07
1;
#130500
0K
#140000
17
08
#140300
0I
#140400
1J
#140500
1K
#150000
18
#150500
0K
#160000
19
0:
#160500
0J
1K
#170000
1:
0;
#170500
0K
#180000
1;
0<
#180400
0F
#180500
0H
#180700
1J
1K
1I
#180900
1H
#190000
1<
0=
#190400
1G
#200000
1=
0>
#200300
0K
#210000
1>
0?
#210300
0J
#210500
1K
#220000
1?
0@
#220500
0K
#230000
1@
0A
#230300
0I
#230500
1J
1K
#240000
1A
0B
#240300
0G
#240400
1G
#240500
0K
#240600
1K
1I
#240700
0I
0J
0K
#240800
1K
1J
#240900
0K
#250000
1B
0C
#250500
0J
1K
#260000
0#
0$
0%
0&
0'
0(
0*
0,
0-
0.
0/
00
01
03
05
06
07
08
09
0:
0<
0>
0?
0@
0A
0B
0D
#260100
1E
#260300
0G
#260400
1G
0K
0H
#260500
0G
1H
0E
#260600
0H
#260800
1I
1J
1K
#260900
1G
#261000
1H
#261200
0I
0J
0K
#270000
0"
1#
1$
1%
1&
1'
1(
0)
1*
0+
1,
1-
1.
1/
10
11
02
13
04
15
16
17
18
19
1:
0;
1<
0=
1>
1?
1@
1A
1B
1C
#270200
1F
1J
1I
1E
#270300
0I
0J
0E
#270400
1K
0F
0G
1J
1E
#270500
0J
0K
0H
0E
#270800
1J
1I
#271000
1H
#280000
1"
1)
1+
0.
01
12
05
06
08
09
0<
0>
0?
0A
0B
#280200
1K
1E
#280300
1F
1G
#280500
0J
0K
#280600
1K
0G
0F
0I
#280800
0K
0H
#280900
1I
#281100
1K
1H
#290000
1.
0/
02
14
15
16
18
19
1;
1<
1=
1>
1?
1A
1B
1D
#290300
0I
#290500
1J
#300000
0+
1/
11
12
05
06
07
08
09
0:
0;
0<
0>
0?
0@
0A
0B
0C
0D
#300300
1I
#310000
0,
15
16
17
18
19
1:
1;
1<
0=
1?
1@
1A
1B
1C
1D
#310400
1G
#320000
0"
0#
0$
0%
0&
0'
0(
0)
0*
0-
0.
0/
00
01
02
03
04
05
06
07
08
09
0:
0;
0<
0?
0@
0A
0B
0C
0D
